{
  "id": "ec82d6cc-b614-4942-9ca5-38e06992174f",
  "name": "BenefitEligibilityRequirementsIntent",
  "auto": true,
    "contexts": [
    "archContext"
  ],
  "responses": [
    {
      "resetContexts": false,
      "action": "",
        "affectedContexts": [
        {
          "name": "archContext",
          "lifespan": 5
        }
      ],
      "parameters": [],
      "messages": [
        {
          "type": "0",
          "title": "",
          "textToSpeech": "",
          "lang": "en",
          "speech": [
            "We may need to ask you to provide more information on your income, household, residency, or other eligibility requirements. If we need more information, we will mail you a letter. You can also provide this information at the time of your application. Usually, we will need 30 days of income information such a check stubs. We may also ask you to provide a copy of your ID, bank statements, and/or proof of residency such as a bill or a copy of your ID with your address on it.  To see specifically what is being requested, you can check your status online. If you are having trouble providing the information requested or have questions about the letter you received, you can call us at 855 373 4636.  If you receive benefits in another state and want to receive benefits in Missouri, you will need to close your case in the other state before applying in Missouri."
          ],
          "condition": ""
        }
      ],
      "speech": []
    }
  ],
  "priority": 500000,
  "webhookUsed": true,
  "webhookForSlotFilling": false,
  "fallbackIntent": false,
  "events": [],
  "conditionalResponses": [],
  "condition": "",
  "conditionalFollowupEvents": []
}