[
  {
    "id": "3f493980-831e-4c98-ac28-e82814c78d99",
    "data": [
      {
        "text": "How do I change the website back to English?",
        "userDefined": false
      }
    ],
    "isTemplate": false,
    "count": 0,
    "lang": "en",
    "updated": 0
  },
  {
    "id": "9ccde0c8-2bc8-4670-a9fe-b41880517492",
    "data": [
      {
        "text": "Why does your web site keep changing to a language other then the one I choose?",
        "userDefined": false
      }
    ],
    "isTemplate": false,
    "count": 0,
    "lang": "en",
    "updated": 0
  },
  {
    "id": "81f29efe-96c3-4144-befe-b477b2c42131",
    "data": [
      {
        "text": "What is a default browser",
        "userDefined": false
      }
    ],
    "isTemplate": false,
    "count": 0,
    "lang": "en",
    "updated": 0
  },
  {
    "id": "566d9c6b-b70c-4f7a-90cc-b897616758ac",
    "data": [
      {
        "text": "Is there currently a system issue?",
        "userDefined": false
      }
    ],
    "isTemplate": false,
    "count": 0,
    "lang": "en",
    "updated": 0
  },
  {
    "id": "94cebbe9-ed4a-4b27-8647-0a75277a1cc4",
    "data": [
      {
        "text": "Are the servers down",
        "userDefined": false
      }
    ],
    "isTemplate": false,
    "count": 0,
    "lang": "en",
    "updated": 0
  },
  {
    "id": "91edf072-e563-4fd1-b01b-612c6935afac",
    "data": [
      {
        "text": "got off english can\u0027tget back",
        "userDefined": false
      }
    ],
    "isTemplate": false,
    "count": 0,
    "lang": "en",
    "updated": 0
  },
  {
    "id": "e890e8b1-669a-42ab-a791-a95fccf0bab7",
    "data": [
      {
        "text": "Mydss.mo.gov comes up in European languages not English.",
        "userDefined": false
      }
    ],
    "isTemplate": false,
    "count": 0,
    "lang": "en",
    "updated": 0
  },
  {
    "id": "df6254ee-80f0-4a50-9489-27c073877db6",
    "data": [
      {
        "text": "will not let me see application in English",
        "userDefined": false
      }
    ],
    "isTemplate": false,
    "count": 0,
    "lang": "en",
    "updated": 0
  },
  {
    "id": "88cb4bc0-774a-4a02-a12e-40372f7a049e",
    "data": [
      {
        "text": "I can\u0027t get the site to to speak English",
        "userDefined": false
      }
    ],
    "isTemplate": false,
    "count": 0,
    "lang": "en",
    "updated": 0
  },
  {
    "id": "1b481bb4-c5de-4497-a1b8-587ced9a5e4f",
    "data": [
      {
        "text": "I’m stuck in a foreign language",
        "userDefined": false
      }
    ],
    "isTemplate": false,
    "count": 0,
    "lang": "en",
    "updated": 0
  }
]