{
  "id": "b5b02789-3f5a-410f-8a47-c04e58128a78",
  "name": "ChildCareIntent",
  "auto": true,
    "contexts": [
    "archContext"
  ],
  "responses": [
    {
      "resetContexts": false,
      "action": "",
        "affectedContexts": [
        {
          "name": "archContext",
          "lifespan": 5
        }
      ],
      "parameters": [],
      "messages": [
        {
          "type": "0",
          "title": "",
          "textToSpeech": "",
          "lang": "en",
          "speech": [
            "You can take your children to a child care provider of your choice, as long as they are contracted with the Department of Social Services. If you need help finding a child care provider, visit Child Care Aware of Missouri at mo.childcareaware.org or call 1-866-892-3228. You can change your child provider at any time as long as they are contracted with the Department of Social Services. To report this change, visit our Benefit Change Reporting page at apps.dss.mo.gov/fmwBenefitChangeReporting. If you do not have a Benefit Change Reporting account and do not want to create one, you can send us your updated information by fax 573 526 9400, email FSD.Documents@dss.mo.gov, or mail P.O. Box 2700 Jefferson City MO 65102. We will need your Social Security Number or DCN on any documents you send in. We will also need the name of the provider, their DVN, and an updated work schedule to update your case. NOTE:There have been changes to child care due to COVID-19. Stay up to date on the latest changes through the Department of Social Services at dss.mo.gov/covid-19 and the Department of Health and Senior Services at health.mo.gov."
          ],
          "condition": ""
        }
      ],
      "speech": []
    }
  ],
  "priority": 500000,
  "webhookUsed": true,
  "webhookForSlotFilling": false,
  "fallbackIntent": false,
  "events": [],
  "conditionalResponses": [],
  "condition": "",
  "conditionalFollowupEvents": []
}