{
  "id": "49477f4a-79e0-4a6c-80ff-808558bc83a7",
  "name": "CovidTestedPositiveIntent",
  "auto": true,
    "contexts": [
    "archContext"
  ],
  "responses": [
    {
      "resetContexts": false,
      "action": "",
        "affectedContexts": [
        {
          "name": "archContext",
          "lifespan": 5
        }
      ],
      "parameters": [],
      "messages": [
        {
          "type": "0",
          "title": "",
          "textToSpeech": "",
          "lang": "en",
          "speech": [
            "If you have tested positive for COVID-19, you may qualify for health care coverage through Missouri Medicaid (MO HealthNet). To make sure your application is processed as quickly as possible, we recommend you include verification of your COVID-19 diagnosis (ex. a letter signed by your doctor, lab results, etc.). To apply, you will need to: Complete and download an Application for MO HealthNet (Medicaid) at dss.mo.gov/fsd/formsmanual. Submit your completed application by email or fax:  Email: COVIDAPPS@dss.mo.gov or Fax: 417-895-6080."
          ],
          "condition": ""
        }
      ],
      "speech": []
    }
  ],
  "priority": 500000,
  "webhookUsed": true,
  "webhookForSlotFilling": false,
  "fallbackIntent": false,
  "events": [],
  "conditionalResponses": [],
  "condition": "",
  "conditionalFollowupEvents": []
}