[
  {
    "id": "1e662d1e-f4ac-418f-83fc-2b54437693d1",
    "data": [
      {
        "text": "My mom passed away Friday",
        "userDefined": false
      }
    ],
    "isTemplate": false,
    "count": 0,
    "lang": "en",
    "updated": 0
  },
  {
    "id": "a2d1b3ea-f827-4bf8-aca6-119d4e2cfa3f",
    "data": [
      {
        "text": "Hi, My mother has passed away this last month and I need to change my dad\u0027s information.",
        "userDefined": false
      }
    ],
    "isTemplate": false,
    "count": 0,
    "lang": "en",
    "updated": 0
  },
  {
    "id": "a02d8b41-30cd-4e32-8ba2-3e4f0b944a9b",
    "data": [
      {
        "text": "My brother received Medicaid to pay for his nursing home charges. He died 11/26 how do I notify MO Healthnet of his death?",
        "userDefined": false
      }
    ],
    "isTemplate": false,
    "count": 0,
    "lang": "en",
    "updated": 0
  },
  {
    "id": "96a7a842-f426-46aa-bfe0-132f1bc4e2d7",
    "data": [
      {
        "text": "I applied for Medicaid for my mother and she died. How do I cancel the application?",
        "userDefined": false
      }
    ],
    "isTemplate": false,
    "count": 0,
    "lang": "en",
    "updated": 0
  },
  {
    "id": "0d1705f2-4e2d-4f72-a397-c57f91444fcd",
    "data": [
      {
        "text": "I need to report a death.",
        "userDefined": false
      }
    ],
    "isTemplate": false,
    "count": 0,
    "lang": "en",
    "updated": 0
  },
  {
    "id": "671e3505-ccbf-4c1d-89f8-49afa143b04f",
    "data": [
      {
        "text": "Need to report someone passed away.",
        "userDefined": false
      }
    ],
    "isTemplate": false,
    "count": 0,
    "lang": "en",
    "updated": 0
  },
  {
    "id": "1187fb8c-f7bd-4550-b071-eedf9035ef9e",
    "data": [
      {
        "text": "My dad passed away and his food stamp card is still active I just want to make sure all of his accounts get closed.",
        "userDefined": false
      }
    ],
    "isTemplate": false,
    "count": 0,
    "lang": "en",
    "updated": 0
  },
  {
    "id": "6e8c3060-edc7-4d2a-83c2-3d9a9a31af1c",
    "data": [
      {
        "text": "Need to report my mother has passed away.",
        "userDefined": false
      }
    ],
    "isTemplate": false,
    "count": 0,
    "lang": "en",
    "updated": 0
  },
  {
    "id": "b5638df1-b150-4fff-8567-1228d792f397",
    "data": [
      {
        "text": "I need to report a death to Medicaid.",
        "userDefined": false
      }
    ],
    "isTemplate": false,
    "count": 0,
    "lang": "en",
    "updated": 0
  },
  {
    "id": "1f9fb936-b4c4-47ef-a5db-1e1adea7fff8",
    "data": [
      {
        "text": "What happens to food stamp benefits when a person dies.",
        "userDefined": false
      }
    ],
    "isTemplate": false,
    "count": 0,
    "lang": "en",
    "updated": 0
  },
  {
    "id": "d3356ad1-33f4-41fe-8777-11460aee9123",
    "data": [
      {
        "text": "when a person dies who was receiving food stamps.. is the family allowed to use whats left on their food stamp card?",
        "userDefined": false
      }
    ],
    "isTemplate": false,
    "count": 0,
    "lang": "en",
    "updated": 0
  },
  {
    "id": "0e483fe7-f12d-4960-a90a-b2bbd954651c",
    "data": [
      {
        "text": "what to do with food stamps when the person dies?\u0027",
        "userDefined": false
      }
    ],
    "isTemplate": false,
    "count": 0,
    "lang": "en",
    "updated": 0
  },
  {
    "id": "6b655e8a-2e62-4055-9201-bc08026a0216",
    "data": [
      {
        "text": "The main beneficiary passed away can the food stamps be used for his children",
        "userDefined": false
      }
    ],
    "isTemplate": false,
    "count": 0,
    "lang": "en",
    "updated": 0
  },
  {
    "id": "74c1ff36-ec2f-4067-b21b-301117a52764",
    "data": [
      {
        "text": "What do we do when the recipient dies",
        "userDefined": false
      }
    ],
    "isTemplate": false,
    "count": 0,
    "lang": "en",
    "updated": 0
  },
  {
    "id": "2c8b9139-72f0-40a0-9738-24026b89ec7d",
    "data": [
      {
        "text": "Can I use the EBT balance of my deceased brother?",
        "userDefined": false
      }
    ],
    "isTemplate": false,
    "count": 0,
    "lang": "en",
    "updated": 0
  },
  {
    "id": "c13f2213-e6a0-4754-a3a2-d4a1eff22e5f",
    "data": [
      {
        "text": "Can I use the EBT balance on my deceased brothers EBT to replace the food he ate while staying at my house?",
        "userDefined": false
      }
    ],
    "isTemplate": false,
    "count": 0,
    "lang": "en",
    "updated": 0
  },
  {
    "id": "700552bd-2396-436d-ba7c-7dc884f1a56a",
    "data": [
      {
        "text": "My aunt received medicaid benefits. I was trying to report that she passed away on Saturday, January 30, 2021.",
        "userDefined": false
      }
    ],
    "isTemplate": false,
    "count": 0,
    "lang": "en",
    "updated": 0
  },
  {
    "id": "a9b61728-99f6-4791-96ea-67c134dbcabb",
    "data": [
      {
        "text": "My boyfriend died on 2/10/21 and his food stamps came out on 2/11/21 what do I do?",
        "userDefined": false
      }
    ],
    "isTemplate": false,
    "count": 0,
    "lang": "en",
    "updated": 0
  },
  {
    "id": "929aa082-b793-4cfc-91b5-282d8be35849",
    "data": [
      {
        "text": "If someone dies in Jan and they got paid in Feb for TA does the bank send that back?",
        "userDefined": false
      }
    ],
    "isTemplate": false,
    "count": 0,
    "lang": "en",
    "updated": 0
  },
  {
    "id": "e04e91e6-621f-4aae-96b7-4c709a17074a",
    "data": [
      {
        "text": "Report death",
        "userDefined": false
      }
    ],
    "isTemplate": false,
    "count": 0,
    "lang": "en",
    "updated": 0
  },
  {
    "id": "d94eb353-49cb-4b29-b2bf-46144ed2dc37",
    "data": [
      {
        "text": "My children mother died last month and I need paper work so that i can add them to my wifes insurance",
        "userDefined": false
      }
    ],
    "isTemplate": false,
    "count": 0,
    "lang": "en",
    "updated": 0
  },
  {
    "id": "7aaa0449-5fc6-4962-b1de-adc3044ee96e",
    "data": [
      {
        "text": "The main beneficiary passed away can the food stamps be used for his children?",
        "userDefined": false
      }
    ],
    "isTemplate": false,
    "count": 0,
    "lang": "en",
    "updated": 0
  },
  {
    "id": "32b9dc3b-081c-405a-9b49-8b18febd2fe9",
    "data": [
      {
        "text": "How do I report death?",
        "userDefined": false
      }
    ],
    "isTemplate": false,
    "count": 0,
    "lang": "en",
    "updated": 0
  },
  {
    "id": "080136d0-d568-4c90-98b5-d172285fc299",
    "data": [
      {
        "text": "My mother was on medicaid and in a nursing home. She recently died. How do I notify DSS?",
        "userDefined": false
      }
    ],
    "isTemplate": false,
    "count": 0,
    "lang": "en",
    "updated": 0
  },
  {
    "id": "82f8e39d-618f-4f33-8ef9-aacea035a03b",
    "data": [
      {
        "text": "How to cancel food stamps for my son who passed away this month.",
        "userDefined": false
      }
    ],
    "isTemplate": false,
    "count": 0,
    "lang": "en",
    "updated": 0
  },
  {
    "id": "c719d41d-fcf3-45f2-ad7e-2468067a0f89",
    "data": [
      {
        "text": "I am calling to report my Mother who was on Medicaid passed away on Sept. 22 2020",
        "userDefined": false
      }
    ],
    "isTemplate": false,
    "count": 0,
    "lang": "en",
    "updated": 0
  },
  {
    "id": "4a952bcb-e1b8-4b05-93c4-6991c5ee8853",
    "data": [
      {
        "text": "What happens when the non-custodial patent dies",
        "userDefined": false
      }
    ],
    "isTemplate": false,
    "count": 0,
    "lang": "en",
    "updated": 0
  },
  {
    "id": "737dc711-f363-4ded-851c-9ea0319bb7af",
    "data": [
      {
        "text": "Who do I call to discuss the death of a Missouri Health Net participant? I call the main number and the agent hung up on me.",
        "userDefined": false
      }
    ],
    "isTemplate": false,
    "count": 0,
    "lang": "en",
    "updated": 0
  },
  {
    "id": "e3d89672-9be7-41f2-811a-293d5d67d29a",
    "data": [
      {
        "text": "I helped my brother apply for an EBT card last September. He passed on March 13. Can you tell me what to do to cancel his benefits? Thank you",
        "userDefined": false
      }
    ],
    "isTemplate": false,
    "count": 0,
    "lang": "en",
    "updated": 0
  },
  {
    "id": "b75c1b4b-5999-44dc-8295-b03dcd5d7b95",
    "data": [
      {
        "text": "How do I notify the Family Support Division of the death of a Blind Pension recipient?",
        "userDefined": false
      }
    ],
    "isTemplate": false,
    "count": 0,
    "lang": "en",
    "updated": 0
  },
  {
    "id": "945f53d9-bee4-4bc7-ae8f-8fa6999ae185",
    "data": [
      {
        "text": "deceased custodal parent",
        "userDefined": false
      }
    ],
    "isTemplate": false,
    "count": 0,
    "lang": "en",
    "updated": 0
  },
  {
    "id": "827b8bdb-5b91-45a1-8e16-f2cbff63cd8a",
    "data": [
      {
        "text": "Hi. My sister draws food stamp benefits. She passed away today. What do I do?",
        "userDefined": false
      }
    ],
    "isTemplate": false,
    "count": 0,
    "lang": "en",
    "updated": 0
  },
  {
    "id": "d791061d-c0d3-4f72-93ef-c0b617ad615a",
    "data": [
      {
        "text": "Can my granddaughter use food stamps her dead dad received for her",
        "userDefined": false
      }
    ],
    "isTemplate": false,
    "count": 0,
    "lang": "en",
    "updated": 0
  },
  {
    "id": "2cb5e4b3-5980-4bc1-9cb8-2352ff4eb4f8",
    "data": [
      {
        "text": "My spouse died",
        "userDefined": false
      }
    ],
    "isTemplate": false,
    "count": 0,
    "lang": "en",
    "updated": 0
  }
]