{
  "id": "77970a19-077e-4fa5-a5df-47cf35a1966b",
  "name": "FeeForServiceProviderInfoIntent",
  "auto": true,
    "contexts": [
    "archContext"
  ],
  "responses": [
    {
      "resetContexts": false,
      "action": "",
        "affectedContexts": [
        {
          "name": "archContext",
          "lifespan": 5
        }
      ],
      "parameters": [],
      "messages": [
        {
          "type": "0",
          "title": "",
          "textToSpeech": "",
          "lang": "en",
          "speech": [
            "You can use the MO Healthnet Fee-For-Service Provider Search at apps.dss.mo.gov/fmsMedicaidProviderSearch to search for a medical provider. To locate a dental clinic or vision center near your home, you can call 211 or visit 211.org. Please remember that you need to be approved for MO HealthNet before you can receive services. If you are eligible, you will get a MO HealthNet Identification Card and information explaining the medical services available to you."
          ],
          "condition": ""
        }
      ],
      "speech": []
    }
  ],
  "priority": 500000,
  "webhookUsed": true,
  "webhookForSlotFilling": false,
  "fallbackIntent": false,
  "events": [],
  "conditionalResponses": [],
  "condition": "",
  "conditionalFollowupEvents": []
}