[
  {
    "data": [
      {
        "text": "How do I get registered to be fingerprinted?",
        "userDefined": false
      }
    ],
    "isTemplate": false,
    "count": 0,
    "lang": "en",
    "updated": 0
  }
]