{
  "id": "8cb1c1e8-4ae8-4156-a35d-d69bca5d82d2",
  "name": "FoodStampsIssuesIntent",
  "auto": true,
    "contexts": [
    "archContext"
  ],
  "responses": [
    {
      "resetContexts": false,
      "action": "",
        "affectedContexts": [
        {
          "name": "archContext",
          "lifespan": 5
        }
      ],
      "parameters": [],
      "messages": [
        {
          "type": "0",
          "title": "",
          "textToSpeech": "",
          "lang": "en",
          "speech": [
            "If you have lost food purchased with food stamp benefits due to the weather, ice storm, fire, flood, tornado, or other household misfortune outside of your control, you will need to fill out a Statement of Loss/Replacement Request Food Form and return it immediately. You must do this within 10 days of the loss to get replacement benefits. You can return this form by mailing it to Family Support Division P.O. Box 2700 Jefferson City MO 65102, faxing it to 573-526-9400, or emailing it to FSD.Documents@dss.mo.gov. It usually takes about 10 days to process your replacement request. You will get a letter in the mail from us about your case."
          ],
          "condition": ""
        }
      ],
      "speech": []
    }
  ],
  "priority": 500000,
  "webhookUsed": true,
  "webhookForSlotFilling": false,
  "fallbackIntent": false,
  "events": [],
  "conditionalResponses": [],
  "condition": "",
  "conditionalFollowupEvents": []
}