{
  "id": "0fa3e074-a88b-4801-821f-ca7b599f07cf",
  "name": "HIPPProgramInfoIntent",
  "auto": true,
    "contexts": [
    "archContext"
  ],
  "responses": [
    {
      "resetContexts": false,
      "action": "",
        "affectedContexts": [
        {
          "name": "archContext",
          "lifespan": 5
        }
      ],
      "parameters": [],
      "messages": [
        {
          "type": "0",
          "title": "",
          "textToSpeech": "",
          "lang": "en",
          "speech": [
            "You can apply for the Health Insurance Premium Payment Program at dss.mo.gov/mhd/participants/pages/hipp.htm if you or a member of your household has applied for or already has MO HealthNet coverage. It is important to note that this benefit is not available to MO HealthNet participants who have a spend down unless they have a diagnosis of HIV/AIDS."
          ],
          "condition": ""
        }
      ],
      "speech": []
    }
  ],
  "priority": 500000,
  "webhookUsed": true,
  "webhookForSlotFilling": false,
  "fallbackIntent": false,
  "events": [],
  "conditionalResponses": [],
  "condition": "",
  "conditionalFollowupEvents": []
}