{
  "id": "0be37379-df18-4c86-976f-d698744d28c5",
  "name": "MedicaidCardProcessDurationIntent",
  "auto": true,
    "contexts": [
    "archContext"
  ],
  "responses": [
    {
      "resetContexts": false,
      "action": "",
        "affectedContexts": [
        {
          "name": "archContext",
          "lifespan": 5
        }
      ],
      "parameters": [],
      "messages": [
        {
          "type": "0",
          "title": "",
          "textToSpeech": "",
          "lang": "en",
          "speech": [
            "It can take 7-10 days for your card to arrive once you have been approved for Medicaid. If you need to see a Doctor before then you can provide them with your DCN for billing purposes.   Your DCN can be found on most of your paperwork from Family Support Division.  It is an 8 digit number and is sometimes displayed with two 0\u0027s in the front.  For example 0012345678.  If you cannot find your DCN on your paperwork, you will need to call us at 855 373 4636."
          ],
          "condition": ""
        }
      ],
      "speech": []
    }
  ],
  "priority": 500000,
  "webhookUsed": true,
  "webhookForSlotFilling": false,
  "fallbackIntent": false,
  "events": [],
  "conditionalResponses": [],
  "condition": "",
  "conditionalFollowupEvents": []
}