{
  "id": "a758485e-6c2c-4773-b766-edc25988d477",
  "name": "MIDCertAdditionalInfoIntent",
  "auto": true,
    "contexts": [
    "archContext"
  ],
  "responses": [
    {
      "resetContexts": false,
      "action": "",
        "affectedContexts": [
        {
          "name": "archContext",
          "lifespan": 5
        }
      ],
      "parameters": [],
      "messages": [
        {
          "type": "0",
          "title": "",
          "textToSpeech": "",
          "lang": "en",
          "speech": [
            "When you are approved for Food Stamp (SNAP) benefits, you are approved for a certification period. Your certification period begins the first month you are eligible for SNAP and will last between 12 and 24 months, depending on your eligibility.**Mid-Certification:**You will get a mid-certification form in the mail halfway through your certification period. You will need to complete this form and return it and any requested documents to the Family Support Division. You do not need to complete an interview for your mid-certification. You do not need to call to have your mid-certification processed. Once we receive the completed form, we will process it as quickly as possible.**Recertification:**You will get a recertification form in the mail when your certification period is about to end. You will need to complete this form and return it and any requested documents to the Family Support Division before the deadline to make sure there is no delay in your benefits.You can turn it in by fax 573 526 9400, email FSD.Documents@dss.mo.gov, or mail it to PO Box 2700 Jefferson City MO 65102If you have lost either certification form, you will need to call us at 855 373 4636 to have another form mailed. We cannot process your case without the form. You are not able to complete any of the certification forms online._It usually takes about 10 days to process your documents. Once your documents have been processed you will get a letter in the mail from us about your case._"
          ],
          "condition": ""
        }
      ],
      "speech": []
    }
  ],
  "priority": 500000,
  "webhookUsed": true,
  "webhookForSlotFilling": false,
  "fallbackIntent": false,
  "events": [],
  "conditionalResponses": [],
  "condition": "",
  "conditionalFollowupEvents": []
}