{
  "id": "c2db211a-a803-4c67-9ff7-def713db492e",
  "name": "MWAInformationIntent",
  "auto": true,
    "contexts": [
    "archContext"
  ],
  "responses": [
    {
      "resetContexts": false,
      "action": "",
        "affectedContexts": [
        {
          "name": "archContext",
          "lifespan": 5
        }
      ],
      "parameters": [],
      "messages": [
        {
          "type": "0",
          "title": "",
          "textToSpeech": "",
          "lang": "en",
          "speech": [
            "In order to get Temporary Assistance benefits, you are required to participate in employment training services through the Missouri Work Assistance (MWA) Program. Work requirements were waived until July 31, 2020 due to COVID-19 but they are required again beginning August 1, 2020. The MWA Program helps Temporary Assistance recipients become ready for a job, get real work experience, find employment, and keep a job. MWA will complete an Individual Employment Plan (IEP) that will serve as a personalized roadmap to help you earn money to become more independent. Please review the full list of eligibility and training/employment requirements at mydss.mo.gov/temporary-assistance for Temporary Assistance benefits for more information. Transitional Employment Benefits (TEB) helps to support working families during their transition into employment and the loss of Temporary Assistance benefits. TEB provides a $50 monthly payment for up to six months."
          ],
          "condition": ""
        }
      ],
      "speech": []
    }
  ],
  "priority": 500000,
  "webhookUsed": true,
  "webhookForSlotFilling": false,
  "fallbackIntent": false,
  "events": [],
  "conditionalResponses": [],
  "condition": "",
  "conditionalFollowupEvents": []
}