{
  "id": "ecf4961c-cdf4-4476-aad1-7936336a8288",
  "name": "NursingHomeInfoIntent",
  "auto": true,
    "contexts": [
    "archContext"
  ],
  "responses": [
    {
      "resetContexts": false,
      "action": "",
        "affectedContexts": [
        {
          "name": "archContext",
          "lifespan": 5
        }
      ],
      "parameters": [],
      "messages": [
        {
          "type": "0",
          "title": "",
          "textToSpeech": "",
          "lang": "en",
          "speech": [
            "Nursing home residents may qualify for MO HealthNet nursing home coverage, also known as \"vendor coverage\".  A resident covered under this program is expected to use all of his or her available income to pay the nursing home, minus a personal needs allowance of $50 and any health insurance premiums the resident pays. After the resident pays his or her portion of the nursing home costs (surplus), the state pays the rest. The Supplemental Nursing Care (SNC) program is available for residents of licensed residential care facilities (RCF) and assisted living facilities (ALF). The SNC program provides an actual cash payment to the resident of up to $156 per month for RCF residents, and $292 per month for ALF residents. SNC recipients also get a $50 personal needs allowance. Visit our Nursing Home Coverage page at mydss.mo.gov/nursing-home-coverage for more information. When a married person enters a nursing facility, a special provision may help protect some of the couple’s resources for the spouse who is not in a nursing facility. This provision also applies when one spouse receives Home and Community-based (HCB) services and the other spouse does not. This spouse is called the \"community spouse.\" This special provision, called \"Division Assets,\" helps to prevent spousal impoverishment. Anyone who has entered a nursing facility or requested HCB services should ask about a Division of Assets, even if not planning to apply for MO HealthNet coverage in the near future. You can visit our Prevention of Spousal Impoverishment page at mydss.mo.gov/prevention-of-spousal-impoverishment for more information."
          ],
          "condition": ""
        }
      ],
      "speech": []
    }
  ],
  "priority": 500000,
  "webhookUsed": true,
  "webhookForSlotFilling": false,
  "fallbackIntent": false,
  "events": [],
  "conditionalResponses": [],
  "condition": "",
  "conditionalFollowupEvents": []
}