{
  "id": "799142c3-c4c5-4609-9a77-e9ae038c4faa",
  "name": "PandemicEBTIntent",
  "auto": true,
    "contexts": [
    "archContext"
  ],
  "responses": [
    {
      "resetContexts": false,
      "action": "",
        "affectedContexts": [
        {
          "name": "archContext",
          "lifespan": 5
        }
      ],
      "parameters": [],
      "messages": [
        {
          "type": "0",
          "title": "",
          "textToSpeech": "",
          "lang": "en",
          "speech": [
            "What is P-EBT? Pandemic Electronic Benefits Transfer (P-EBT) is a temporary benefit for children who are eligible for free or reduced-price lunch but did not receive meals at school or day care due to closure, hybrid, or virtual learning. This benefit will help cover food costs from September 2020 through May 2021. Who is eligible for P-EBT?  Children in school: Your child may be eligible if they normally get free or reduced-price meals at school but they were not able to because their school was not doing in-person classes or had reduced hours at least 5 days in a row due to COVID-19. NOTE: Closures do not include weekends, holidays, or regularly scheduled breaks. Children in day care: Your child may be eligible if they are under age 6 and your household was approved for SNAP any time after October 1, 2020. How much is the P-EBT benefit? Your child\u0027s monthly benefit will depend on how many days they learned remotely: If your child was learning remotely for 13 school days or more, you will get the maximum monthly benefit of $129.58.   If your child was learning remotely for 12 days or less, you will get the maximum monthly benefit of $77.75. How do I apply for P-EBT? You must apply for P-EBT if your child is school-aged, even if your family already gets SNAP (Food Stamp) benefits. The deadline to apply for P-EBT benefits is July 31, 2021. To apply, you must complete the P-EBT Application at dss.mo.gov/covid-19/pdf/P-EBT-Application aplicación en Español) and submit it by email to FSD.MOPEBT@dss.mo.gov or by mail to: Family Support Division 615 E. 13th St. Kansas City, MO 64106. NOTE:If your child is under the age of 6 and your household was approved for SNAP any time after October 1, 2020, you do not need to apply for P-EBT. This benefit will automatically be loaded to your EBT card. When applying for P-EBT, please make sure that: You use your child’s full name (as it appears on their school district’s file) and not their nickname. Your child’s date of birth is correct. Your child was enrolled in the school district or building at the time the school closed due to the pandemic (NOTE: This includes early head start students or kindergarten students who were not enrolled in school during the 2020-2021 school year).  Your child’s school district participates in the National School Lunch Program. It may take up to 30 days to review and approve your P-EBT application. After we receive your application, you can check the status  of your case online at apps.dss.mo.gov/BenefitReview/BenefitSummary.aspx."
          ],
          "condition": ""
        }
      ],
      "speech": []
    }
  ],
  "priority": 500000,
  "webhookUsed": true,
  "webhookForSlotFilling": false,
  "fallbackIntent": false,
  "events": [],
  "conditionalResponses": [],
  "condition": "",
  "conditionalFollowupEvents": []
}