{
  "id": "a9831ba2-924a-4ab0-a88f-ad511881e057",
  "name": "PresumptiveEligibilityIntent",
  "auto": true,
    "contexts": [
    "archContext"
  ],
  "responses": [
    {
      "resetContexts": false,
      "action": "",
        "affectedContexts": [
        {
          "name": "archContext",
          "lifespan": 5
        }
      ],
      "parameters": [],
      "messages": [
        {
          "type": "0",
          "title": "",
          "textToSpeech": "",
          "lang": "en",
          "speech": [
            "Presumptive Eligibility makes it possible for eligible individuals to gain immediate access to medical services for a temporary period of time for: Children, Pregnant Women, Breast and Cervical TreatmentParents and Caretaker Relatives. To find out if you qualify, contact your Primary Care Provider. The Presumptive Eligibility coverage is temporary. To continue receiving MO HealthNet services after your PE coverage expires, you will need to submit an application at mydss.mo.gov/qualify. You can apply for help online any time, any day. You can also download and print applications and turn in by: Email: FSD.Documents@dss.mo.gov, Fax: 573-526-9400 or Mail: Family Support Division P.O. Box 2700 Jefferson City MO 65102. Once you have submitted your application, an eligibility specialist will review your application to see if you are eligible and will send you a letter in the mail."
          ],
          "condition": ""
        }
      ],
      "speech": []
    }
  ],
  "priority": 500000,
  "webhookUsed": true,
  "webhookForSlotFilling": false,
  "fallbackIntent": false,
  "events": [],
  "conditionalResponses": [],
  "condition": "",
  "conditionalFollowupEvents": []
}