{
  "id": "6a7782a7-f0b6-4e1c-a147-7efb6b8c1ea8",
  "name": "UpdatingHouseholdIncomeIntent",
  "auto": true,
    "contexts": [
    "archContext"
  ],
  "responses": [
    {
      "resetContexts": false,
      "action": "",
        "affectedContexts": [
        {
          "name": "archContext",
          "lifespan": 5
        }
      ],
      "parameters": [],
      "messages": [
        {
          "type": "0",
          "title": "",
          "textToSpeech": "",
          "lang": "en",
          "speech": [
            "To make sure you are still eligible for benefits, you should report any changes to your household or income to us immediately. If you are only receiving Food Stamp (SNAP) benefits, you will need to report a change when: Your income exceeds the for your household size or  Able Bodied Adults without Dependents (ABAWD) participants have a reduction in your work/training hours. You can report this information by: Online at apps.dss.mo.gov/fmwBenefitChangeReporting, Fax: 573-526-9400, Email: FSD.Documents@dss.mo.gov or Mail: Family Support Division P.O. Box 2700 Jefferson City MO 65102. If you are having trouble logging into your online account, call 855-373-4636 for help. We need your name and Social Security Number or DCN clearly written on the documents."
          ],
          "condition": ""
        }
      ],
      "speech": []
    }
  ],
  "priority": 500000,
  "webhookUsed": true,
  "webhookForSlotFilling": false,
  "fallbackIntent": false,
  "events": [],
  "conditionalResponses": [],
  "condition": "",
  "conditionalFollowupEvents": []
}