{
  "id": "9740615e-2ec6-4725-8aac-adc8a8201314",
  "name": "VitalRecordsInfoIntent",
  "auto": true,
    "contexts": [
    "archContext"
  ],
  "responses": [
    {
      "resetContexts": false,
      "action": "",
        "affectedContexts": [
        {
          "name": "archContext",
          "lifespan": 5
        }
      ],
      "parameters": [],
      "messages": [
        {
          "type": "0",
          "title": "",
          "textToSpeech": "",
          "lang": "en",
          "speech": [
            "You will need to contact the Bureau of Vital Records (health.mo.gov/data/vitalrecords) for help with your birth certificate. Under the Missouri Adoptee Rights Act (Section 193.125 and 193.128, RSMo), adoptees, adoptee’s attorneys, birth parents, and lineal descendants of deceased adoptees can request a copy of the adoptee’s original birth certificate. Visit the Bureau of Vital Records – Missouri Adoptee Rights Act (health.mo.gov/data/vitalrecords/correcting.php for more information."
          ],
          "condition": ""
        }
      ],
      "speech": []
    }
  ],
  "priority": 500000,
  "webhookUsed": true,
  "webhookForSlotFilling": false,
  "fallbackIntent": false,
  "events": [],
  "conditionalResponses": [],
  "condition": "",
  "conditionalFollowupEvents": []
}